{
  "group": "helplcraft",
  "type": "minecraft:crafting_shaped",
  "pattern": [
    "  2",
    "34 ",
    " 7 "
  ],
  "key": {
    "2": {
      "item": "helplcraft:helplium"
    },
    "3": {
      "item": "helplcraft:helplium"
    },
    "4": {
      "item": "helplcraft:helpliumsquared"
    },
    "7": {
      "item": "helplcraft:helplium"
    }
  },
  "result": {
    "item": "helplcraft:helpliumblaster",
    "count": 1
  }
}