{
  "_fv": 6,
  "_type": "recipe",
  "definition": {
    "recipeType": "Crafting",
    "xpReward": 0.0,
    "recipeRetstackSize": 1,
    "group": "",
    "recipeShapeless": false,
    "recipeSlots": [
      {
        "value": "Items.FEATHER"
      },
      {
        "value": ""
      },
      {
        "value": "Items.FEATHER"
      },
      {
        "value": "CUSTOM:Helplium"
      },
      {
        "value": "CUSTOM:HelpliumSquared"
      },
      {
        "value": "CUSTOM:Helplium"
      },
      {
        "value": ""
      },
      {
        "value": ""
      },
      {
        "value": ""
      }
    ],
    "recipeReturnStack": {
      "value": "CUSTOM:Buutz.boots"
    },
    "name": "craftbuutz",
    "namespace": "mod"
  }
}