{
  "_fv": 6,
  "_type": "tool",
  "definition": {
    "renderType": 0,
    "texture": "floatystick",
    "customModelName": "Normal",
    "name": "Floaty Stick",
    "creativeTab": {
      "value": "COMBAT"
    },
    "toolType": "Sword",
    "harvestLevel": 1,
    "efficiency": 0.0,
    "attackSpeed": 2.0,
    "enchantability": 0,
    "damageVsEntity": 5.0,
    "usageCount": 200,
    "blocksAffected": [],
    "hasGlow": false,
    "repairItems": [
      {
        "value": "CUSTOM:Helplium"
      }
    ],
    "onEntityHitWith": {
      "name": "FloatyStickMobIsHitWithTool"
    }
  }
}