{
  "_fv": 6,
  "_type": "tool",
  "definition": {
    "renderType": 0,
    "texture": "helpliumlifeformdivider2",
    "customModelName": "Normal",
    "name": "Helplium Lifeform Divider",
    "creativeTab": {
      "value": "COMBAT"
    },
    "toolType": "Sword",
    "harvestLevel": 1,
    "efficiency": 4.0,
    "attackSpeed": 1.4,
    "enchantability": 10,
    "damageVsEntity": 7.0,
    "usageCount": 413,
    "blocksAffected": [],
    "hasGlow": false,
    "repairItems": [
      {
        "value": "CUSTOM:Helplium"
      }
    ],
    "onItemInUseTick": {
      "name": "HelpliumLifeformDividerToolInHandTick"
    }
  }
}